/* XPM */
static char * hourglass_xpm[] = {
"25 24 253 2",
"  	c None",
". 	c #000000",
"+ 	c #000033",
"@ 	c #000066",
"# 	c #000099",
"$ 	c #0000CC",
"% 	c #0000FF",
"& 	c #002B00",
"* 	c #002B33",
"= 	c #002B66",
"- 	c #002B99",
"; 	c #002BCC",
"> 	c #002BFF",
", 	c #005500",
"' 	c #005533",
") 	c #005566",
"! 	c #005599",
"~ 	c #0055CC",
"{ 	c #0055FF",
"] 	c #008000",
"^ 	c #008033",
"/ 	c #008066",
"( 	c #008099",
"_ 	c #0080CC",
": 	c #0080FF",
"< 	c #00AA00",
"[ 	c #00AA33",
"} 	c #00AA66",
"| 	c #00AA99",
"1 	c #00AACC",
"2 	c #00AAFF",
"3 	c #00D500",
"4 	c #00D533",
"5 	c #00D566",
"6 	c #00D599",
"7 	c #00D5CC",
"8 	c #00D5FF",
"9 	c #00FF00",
"0 	c #00FF33",
"a 	c #00FF66",
"b 	c #00FF99",
"c 	c #00FFCC",
"d 	c #00FFFF",
"e 	c #330000",
"f 	c #330033",
"g 	c #330066",
"h 	c #330099",
"i 	c #3300CC",
"j 	c #3300FF",
"k 	c #332B00",
"l 	c #332B33",
"m 	c #332B66",
"n 	c #332B99",
"o 	c #332BCC",
"p 	c #332BFF",
"q 	c #335500",
"r 	c #335533",
"s 	c #335566",
"t 	c #335599",
"u 	c #3355CC",
"v 	c #3355FF",
"w 	c #338000",
"x 	c #338033",
"y 	c #338066",
"z 	c #338099",
"A 	c #3380CC",
"B 	c #3380FF",
"C 	c #33AA00",
"D 	c #33AA33",
"E 	c #33AA66",
"F 	c #33AA99",
"G 	c #33AACC",
"H 	c #33AAFF",
"I 	c #33D500",
"J 	c #33D533",
"K 	c #33D566",
"L 	c #33D599",
"M 	c #33D5CC",
"N 	c #33D5FF",
"O 	c #33FF00",
"P 	c #33FF33",
"Q 	c #33FF66",
"R 	c #33FF99",
"S 	c #33FFCC",
"T 	c #33FFFF",
"U 	c #660000",
"V 	c #660033",
"W 	c #660066",
"X 	c #660099",
"Y 	c #6600CC",
"Z 	c #6600FF",
"` 	c #662B00",
" .	c #662B33",
"..	c #662B66",
"+.	c #662B99",
"@.	c #662BCC",
"#.	c #662BFF",
"$.	c #665500",
"%.	c #665533",
"&.	c #665566",
"*.	c #665599",
"=.	c #6655CC",
"-.	c #6655FF",
";.	c #668000",
">.	c #668033",
",.	c #668066",
"'.	c #668099",
").	c #6680CC",
"!.	c #6680FF",
"~.	c #66AA00",
"{.	c #66AA33",
"].	c #66AA66",
"^.	c #66AA99",
"/.	c #66AACC",
"(.	c #66AAFF",
"_.	c #66D500",
":.	c #66D533",
"<.	c #66D566",
"[.	c #66D599",
"}.	c #66D5CC",
"|.	c #66D5FF",
"1.	c #66FF00",
"2.	c #66FF33",
"3.	c #66FF66",
"4.	c #66FF99",
"5.	c #66FFCC",
"6.	c #66FFFF",
"7.	c #990000",
"8.	c #990033",
"9.	c #990066",
"0.	c #990099",
"a.	c #9900CC",
"b.	c #9900FF",
"c.	c #992B00",
"d.	c #992B33",
"e.	c #992B66",
"f.	c #992B99",
"g.	c #992BCC",
"h.	c #992BFF",
"i.	c #995500",
"j.	c #995533",
"k.	c #995566",
"l.	c #995599",
"m.	c #9955CC",
"n.	c #9955FF",
"o.	c #998000",
"p.	c #998033",
"q.	c #998066",
"r.	c #998099",
"s.	c #9980CC",
"t.	c #9980FF",
"u.	c #99AA00",
"v.	c #99AA33",
"w.	c #99AA66",
"x.	c #99AA99",
"y.	c #99AACC",
"z.	c #99AAFF",
"A.	c #99D500",
"B.	c #99D533",
"C.	c #99D566",
"D.	c #99D599",
"E.	c #99D5CC",
"F.	c #99D5FF",
"G.	c #99FF00",
"H.	c #99FF33",
"I.	c #99FF66",
"J.	c #99FF99",
"K.	c #99FFCC",
"L.	c #99FFFF",
"M.	c #CC0000",
"N.	c #CC0033",
"O.	c #CC0066",
"P.	c #CC0099",
"Q.	c #CC00CC",
"R.	c #CC00FF",
"S.	c #CC2B00",
"T.	c #CC2B33",
"U.	c #CC2B66",
"V.	c #CC2B99",
"W.	c #CC2BCC",
"X.	c #CC2BFF",
"Y.	c #CC5500",
"Z.	c #CC5533",
"`.	c #CC5566",
" +	c #CC5599",
".+	c #CC55CC",
"++	c #CC55FF",
"@+	c #CC8000",
"#+	c #CC8033",
"$+	c #CC8066",
"%+	c #CC8099",
"&+	c #CC80CC",
"*+	c #CC80FF",
"=+	c #CCAA00",
"-+	c #CCAA33",
";+	c #CCAA66",
">+	c #CCAA99",
",+	c #CCAACC",
"'+	c #CCAAFF",
")+	c #CCD500",
"!+	c #CCD533",
"~+	c #CCD566",
"{+	c #CCD599",
"]+	c #CCD5CC",
"^+	c #CCD5FF",
"/+	c #CCFF00",
"(+	c #CCFF33",
"_+	c #CCFF66",
":+	c #CCFF99",
"<+	c #CCFFCC",
"[+	c #CCFFFF",
"}+	c #FF0000",
"|+	c #FF0033",
"1+	c #FF0066",
"2+	c #FF0099",
"3+	c #FF00CC",
"4+	c #FF00FF",
"5+	c #FF2B00",
"6+	c #FF2B33",
"7+	c #FF2B66",
"8+	c #FF2B99",
"9+	c #FF2BCC",
"0+	c #FF2BFF",
"a+	c #FF5500",
"b+	c #FF5533",
"c+	c #FF5566",
"d+	c #FF5599",
"e+	c #FF55CC",
"f+	c #FF55FF",
"g+	c #FF8000",
"h+	c #FF8033",
"i+	c #FF8066",
"j+	c #FF8099",
"k+	c #FF80CC",
"l+	c #FF80FF",
"m+	c #FFAA00",
"n+	c #FFAA33",
"o+	c #FFAA66",
"p+	c #FFAA99",
"q+	c #FFAACC",
"r+	c #FFAAFF",
"s+	c #FFD500",
"t+	c #FFD533",
"u+	c #FFD566",
"v+	c #FFD599",
"w+	c #FFD5CC",
"x+	c #FFD5FF",
"y+	c #FFFF00",
"z+	c #FFFF33",
"A+	c #FFFF66",
"B+	c #FFFF99",
"C+	c #FFFFCC",
"D+	c #FFFFFF",
"D+D+D+D+D+D+D+D+D+D+D+D+D+D+D+D+D+D+D+D+D+D+D+D+D+",
"D+D+D+D+D+%.%.p.v.;+;+;+q.q.q.w.p.j.%.$.%.D+D+D+D+",
"D+D+D+D+o.>+-+v.p.p.p.q.p.p.j.p.j.p.p.%.$.%.D+D+D+",
"D+D+D+D+$.>.%.p.p.#+v.v.p.p.k.p.p.j.$.%.o.%.D+D+D+",
"D+D+D+D+%.o.o.@+;+;+v+D+D+D+]+>+-+p.p.$.$.%.D+D+D+",
"D+D+D+D+D+j.>+j.$.j.$.$.%.$.$.%.%.p.p.i.j.D+D+D+D+",
"D+D+D+D+D+$.]+D+D+D+D+D+D+D+D+D+D+]+D+$.j.D+D+D+D+",
"D+D+D+D+D+$.w+D+q.]+D+D+D+D+D+D+D+r.D+j.p.D+D+D+D+",
"D+D+D+D+D+%.w+D+D+x.D+^+]+]+]+D+r.D+D+>.j.D+D+D+D+",
"D+D+D+D+D+p.]+D+D+D+r.D+x.,+D+,.D+D+D+%.%.D+D+D+D+",
"D+D+D+D+D+o.<+D+D+D+D+'.D+D+,+D+D+D+D+i.i.D+D+D+D+",
"D+D+D+D+D+$.]+D+D+D+D+D+D+x.D+D+D+D+D+j.j.D+D+D+D+",
"D+D+D+D+D+p.w+D+D+D+D+,+D+x+,.D+D+D+D+p.%.D+D+D+D+",
"D+D+D+D+D+p.<+D+D+x.D+D+D+D+D+x.D+D+D+$.i.D+D+D+D+",
"D+D+D+D+D+j.]+D+]+D+D+D+D+D+D+w+x.D+D+j.j.D+D+D+D+",
"D+D+D+D+D+o.]+D+q.D+D+D+D+x+D+D+D+q.D+%.p.D+D+D+D+",
"D+D+D+D+D+p.]+x.D+D+]+w+w+<+w+w+D+D+D+$.j.D+D+D+D+",
"D+D+D+D+D+o.]+,.D+x.>+]+]+]+,+]+D+D+r.>.i.D+D+D+D+",
"D+D+D+D+D+p.,+,.D+x.x.y.]+]+y.y.x.D+,.j.j.D+D+D+D+",
"D+D+D+D+%.p.p.r.D+]+y.]+y.x.,+]+w+D+,.$.%.%.D+D+D+",
"D+D+D+C+%.p.o.p.q.,.r.q.r.r.'.'.'.%.j.;.$.%.x+D+D+",
"D+D+D+]+i.>.p.j.>.$.%.$.i.i.%.$.p.o.i.%.;.>.]+D+D+",
"D+D+x+]+]+$.%.j.p.w.{+D+D+[+{+;+w.o.%.%.j.]+^+D+D+",
"D+D+D+D+x+[+x+]+]+]+,+,+,+]+]+]+]+]+]+]+[+C+D+D+D+"};
