/* XPM */
static char *Pixmap[] = {
"22 22 256 3",
"000 c gray100",
"001 c #FFFFCC",
"002 c #FFFF99",
"003 c #FFFF66",
"004 c #FFFF33",
"005 c yellow",
"006 c #FFCCFF",
"007 c #FFCCCC",
"008 c #FFCC99",
"009 c #FFCC66",
"010 c #FFCC33",
"011 c #FFCC00",
"012 c #FF99FF",
"013 c #FF99CC",
"014 c #FF9999",
"015 c #FF9966",
"016 c #FF9933",
"017 c #FF9900",
"018 c #FF66FF",
"019 c #FF66CC",
"020 c #FF6699",
"021 c #FF6666",
"022 c #FF6633",
"023 c #FF6600",
"024 c #FF33FF",
"025 c #FF33CC",
"026 c #FF3399",
"027 c #FF3366",
"028 c #FF3333",
"029 c #FF3300",
"030 c magenta",
"031 c #FF00CC",
"032 c #FF0099",
"033 c #FF0066",
"034 c #FF0033",
"035 c red",
"036 c #CCFFFF",
"037 c #CCFFCC",
"038 c #CCFF99",
"039 c #CCFF66",
"040 c #CCFF33",
"041 c #CCFF00",
"042 c #CCCCFF",
"043 c gray80",
"044 c #CCCC99",
"045 c #CCCC66",
"046 c #CCCC33",
"047 c #CCCC00",
"048 c #CC99FF",
"049 c #CC99CC",
"050 c #CC9999",
"051 c #CC9966",
"052 c #CC9933",
"053 c #CC9900",
"054 c #CC66FF",
"055 c #CC66CC",
"056 c #CC6699",
"057 c #CC6666",
"058 c #CC6633",
"059 c #CC6600",
"060 c #CC33FF",
"061 c #CC33CC",
"062 c #CC3399",
"063 c #CC3366",
"064 c #CC3333",
"065 c #CC3300",
"066 c #CC00FF",
"067 c #CC00CC",
"068 c #CC0099",
"069 c #CC0066",
"070 c #CC0033",
"071 c #CC0000",
"072 c #99FFFF",
"073 c #99FFCC",
"074 c #99FF99",
"075 c #99FF66",
"076 c #99FF33",
"077 c #99FF00",
"078 c #99CCFF",
"079 c #99CCCC",
"080 c #99CC99",
"081 c #99CC66",
"082 c #99CC33",
"083 c #99CC00",
"084 c #9999FF",
"085 c #9999CC",
"086 c gray60",
"087 c #999966",
"088 c #999933",
"089 c #999900",
"090 c #9966FF",
"091 c #9966CC",
"092 c #996699",
"093 c #996666",
"094 c #996633",
"095 c #996600",
"096 c #9933FF",
"097 c #9933CC",
"098 c #993399",
"099 c #993366",
"100 c #993333",
"101 c #993300",
"102 c #9900FF",
"103 c #9900CC",
"104 c #990099",
"105 c #990066",
"106 c #990033",
"107 c #990000",
"108 c #66FFFF",
"109 c #66FFCC",
"110 c #66FF99",
"111 c #66FF66",
"112 c #66FF33",
"113 c #66FF00",
"114 c #66CCFF",
"115 c #66CCCC",
"116 c #66CC99",
"117 c #66CC66",
"118 c #66CC33",
"119 c #66CC00",
"120 c #6699FF",
"121 c #6699CC",
"122 c #669999",
"123 c #669966",
"124 c #669933",
"125 c #669900",
"126 c #6666FF",
"127 c #6666CC",
"128 c #666699",
"129 c gray40",
"130 c #666633",
"131 c #666600",
"132 c #6633FF",
"133 c #6633CC",
"134 c #663399",
"135 c #663366",
"136 c #663333",
"137 c #663300",
"138 c #6600FF",
"139 c #6600CC",
"140 c #660099",
"141 c #660066",
"142 c #660033",
"143 c #660000",
"144 c #33FFFF",
"145 c #33FFCC",
"146 c #33FF99",
"147 c #33FF66",
"148 c #33FF33",
"149 c #33FF00",
"150 c #33CCFF",
"151 c #33CCCC",
"152 c #33CC99",
"153 c #33CC66",
"154 c #33CC33",
"155 c #33CC00",
"156 c #3399FF",
"157 c #3399CC",
"158 c #339999",
"159 c #339966",
"160 c #339933",
"161 c #339900",
"162 c #3366FF",
"163 c #3366CC",
"164 c #336699",
"165 c #336666",
"166 c #336633",
"167 c #336600",
"168 c #3333FF",
"169 c #3333CC",
"170 c #333399",
"171 c #333366",
"172 c gray20",
"173 c #333300",
"174 c #3300FF",
"175 c #3300CC",
"176 c #330099",
"177 c #330066",
"178 c #330033",
"179 c #330000",
"180 c cyan",
"181 c #00FFCC",
"182 c #00FF99",
"183 c #00FF66",
"184 c #00FF33",
"185 c green",
"186 c #00CCFF",
"187 c #00CCCC",
"188 c #00CC99",
"189 c #00CC66",
"190 c #00CC33",
"191 c #00CC00",
"192 c #0099FF",
"193 c #0099CC",
"194 c #009999",
"195 c #009966",
"196 c #009933",
"197 c #009900",
"198 c #0066FF",
"199 c #0066CC",
"200 c #006699",
"201 c #006666",
"202 c #006633",
"203 c #006600",
"204 c #0033FF",
"205 c #0033CC",
"206 c #003399",
"207 c #003366",
"208 c #003333",
"209 c #003300",
"210 c blue",
"211 c #0000CC",
"212 c #000099",
"213 c #000066",
"214 c #000033",
"215 c #EE0000",
"216 c #DD0000",
"217 c #BB0000",
"218 c #AA0000",
"219 c #880000",
"220 c #770000",
"221 c #550000",
"222 c #440000",
"223 c #220000",
"224 c #110000",
"225 c #00EE00",
"226 c #00DD00",
"227 c #00BB00",
"228 c #00AA00",
"229 c #008800",
"230 c #007700",
"231 c #005500",
"232 c #004400",
"233 c #002200",
"234 c #001100",
"235 c #0000EE",
"236 c #0000DD",
"237 c #0000BB",
"238 c #0000AA",
"239 c #000088",
"240 c #000077",
"241 c #000055",
"242 c #000044",
"243 c #000022",
"244 c #000011",
"245 c #EEEEEE",
"246 c #DDDDDD",
"247 c #BBBBBB",
"248 c #AAAAAA",
"249 c #888888",
"250 c #777777",
"251 c #555555",
"252 c #444444",
"253 c #222222",
"254 c #111111",
"255 c black",
"000000000000000000000000000000000000000255255255255000000000000000",
"000000000000000000000000000000000255255027027027027255000000000000",
"000000000000000000000000000000000255249249027012027027000000000000",
"000000000000000000000000000255247246000000247249027027099255000000",
"000000000000000000000000000247245245247247247247251027099255000000",
"000000000000000000000255041041041064064245247249250255099255000000",
"000000000000000000000041041041017017017064247250252255101255000000",
"000000000000000255041041041000017017017017064252253255255253000000",
"000000000000000041041041017017017017017017252255252255255253252252",
"000000000255088017017000017017017017017095252255252255253253252252",
"000000000088009009017058058017017017095100252255255254253252252252",
"000000000009036036009009088017017100059058255255253253252252000000",
"000000255009036036009009009017095059058058255254253252252252000000",
"000000255009036009009009009064100058058064254253252252252000000000",
"000255088009009009009009009064058064255254253252252252000000000000",
"000255255009009009009009088064058255254253252252252000000000000000",
"255252000255255009088088059064255253253252252252000000000000000000",
"255250252255255088088059255255254253253252252000000000000000000000",
"255255255255255255254253253252252252252252000000000000000000000000",
"255255255255254253253252252252252252252000000000000000000000000000",
"000000000000252252252252252252000000000000000000000000000000000000",
"000000000000252252252000000000000000000000000000000000000000000000"
};
